﻿"Monthly average retail prices for selected products 1 2"
"Frequency: Monthly"
"Table: 18-10-0245-01"
"Release date: 2023-11-01"
"Geography: Canada, Province or territory"
""
""

"Geography","Quebec",,,,,,,,,,,,,,,,,,,,,,,,,,,,,,,,,,,,,,,,,,,,,,,,,,,,,,,,,,,,,,,,,,,,,,,,,,,,
"Products","May 2017","June 2017","July 2017","August 2017","September 2017","October 2017","November 2017","December 2017","January 2018","February 2018","March 2018","April 2018","May 2018","June 2018","July 2018","August 2018","September 2018","October 2018","November 2018","December 2018","January 2019","February 2019","March 2019","April 2019","May 2019","June 2019","July 2019","August 2019","September 2019","October 2019","November 2019","December 2019","January 2020","February 2020","March 2020","April 2020","May 2020","June 2020","July 2020","August 2020","September 2020","October 2020","November 2020","December 2020","January 2021","February 2021","March 2021","April 2021","May 2021","June 2021","July 2021","August 2021","September 2021","October 2021","November 2021","December 2021","January 2022","February 2022","March 2022","April 2022","May 2022","June 2022","July 2022","August 2022","September 2022","October 2022","November 2022","December 2022","January 2023","February 2023","March 2023","April 2023","May 2023","June 2023","July 2023","August 2023","September 2023"
,"Dollars",,,,,,,,,,,,,,,,,,,,,,,,,,,,,,,,,,,,,,,,,,,,,,,,,,,,,,,,,,,,,,,,,,,,,,,,,,,,
"Beef stewing cuts, per kilogram 3","13.35","13.58","14.14","13.54","13.11","13.53","13.84","13.83","11.95","13.37","12.59","13.85","14.42","14.33","13.32","13.24","12.84","13.25","11.45","13.82","13.86","13.66","14.13","14.02","14.41","14.32","14.21","13.88","14.20","13.91","14.93","14.77","14.35","14.54","15.16","14.43","16.02","17.13","18.07","14.57","14.86","14.95","14.18","14.51","14.88","14.47","15.07","14.10","15.63","16.06","16.59","15.95","15.10","15.38","17.57","14.67","17.98","17.37","17.52","18.85","18.72","18.60","18.79","18.00","18.40","18.38","19.42","19.50","16.96","17.25","14.96","14.62","19.50","19.79","19.65","11.99","18.72"
"Beef striploin cuts, per kilogram 3","29.79","20.05","21.87","25.46","27.22","11.91","27.74","26.37","22.37","16.17","21.11","26.06","17.28","29.25","28.36","23.67","22.10","30.12","29.77","14.75","21.92","29.70","20.16","30.29","21.57","26.39","24.99","17.80","25.67","14.15","25.70","29.00","23.33","20.74","18.24","26.30","22.39","31.18","32.23","22.23","30.79","27.80","27.85","14.21","25.49","29.16","32.42","22.25","31.49","33.86","37.26","33.62","22.14","33.60","37.93","19.25","30.48","35.53","35.40","35.56","22.62","34.91","33.72","38.21","34.07","19.13","33.90","34.47","34.34","36.00","36.50","22.91","38.14","38.47","41.05","37.79","38.80"
"Beef top sirloin cuts, per kilogram 3","20.81","15.24","15.38","15.68","20.89","19.23","18.95","12.43","16.87","18.26","18.10","20.30","17.14","20.90","20.94","18.23","18.46","20.04","20.09","20.92","17.60","17.59","22.03","22.20","12.60","23.63","12.54","22.16","23.49","21.35","23.54","13.23","23.30","23.04","23.63","15.10","21.60","23.58","22.55","25.39","14.16","25.07","22.97","23.73","22.14","22.64","24.30","23.49","25.76","24.30","26.89","27.79","25.18","25.13","26.84","25.30","24.61","24.02","24.55","24.19","26.68","27.09","25.98","23.85","27.95","26.61","25.54","22.42","27.29","27.47","26.91","28.27","30.53","32.82","31.55","32.31","30.10"
"Beef rib cuts, per kilogram 3","17.06","26.59","19.76","21.65","29.06","30.77","30.49","29.34","20.68","27.09","28.82","23.03","25.53","17.76","20.03","29.71","29.05","19.78","24.08","30.40","30.54","31.01","19.22","24.03","28.90","20.23","21.60","26.78","29.87","29.45","31.14","27.52","24.64","31.00","19.93","26.34","25.63","36.07","23.65","24.30","17.80","21.96","32.71","31.47","32.25","32.11","33.73","29.14","30.27","19.95","23.24","34.23","37.85","38.12","38.08","38.27","37.54","37.76","37.23","38.33","37.02","21.13","23.22","23.17","36.54","36.03","38.43","34.80","23.05","24.86","36.67","27.68","38.37","25.63","21.71","41.26","22.42"
"Ground beef, per kilogram 3","10.10","9.73","11.78","10.79","11.57","10.17","10.27","9.62","9.72","9.95","10.25","9.15","9.53","10.78","10.03","9.42","9.79","10.04","10.57","8.83","9.72","10.36","9.76","10.18","9.72","9.47","9.15","10.77","9.93","9.78","9.28","11.09","9.67","9.45","10.26","10.18","12.18","11.13","10.25","10.62","9.82","9.27","8.98","10.94","9.80","10.39","10.12","9.32","9.73","10.27","10.44","10.65","10.56","10.34","10.99","11.36","10.63","10.79","10.05","11.96","10.21","10.97","10.84","10.31","12.56","11.18","9.75","11.58","11.53","9.82","10.13","12.61","11.78","11.99","11.79","12.84","11.44"
"Pork loin cuts, per kilogram 3","8.54","7.80","9.24","8.76","7.25","7.28","8.21","8.50","6.59","7.55","7.54","7.66","7.99","7.37","8.01","8.52","7.65","7.56","6.74","7.79","7.93","7.64","6.97","7.22","7.81","9.11","9.03","8.27","8.24","6.99","7.74","8.85","8.09","8.80","8.60","9.92","10.76","7.99","8.53","9.19","7.67","9.19","9.01","10.26","10.45","8.87","7.77","7.90","9.04","8.47","8.53","10.19","8.93","9.39","9.06","10.56","9.46","8.26","8.23","9.18","10.06","9.52","9.20","8.87","9.01","10.83","7.59","11.23","10.05","8.27","8.37","9.61","10.68","8.69","9.64","8.20","9.99"
"Pork rib cuts, per kilogram 3","8.66","9.56","7.60","9.17","6.50","7.25","8.19","8.32","7.76","7.85","6.85","8.79","9.39","10.19","9.54","9.17","6.97","9.66","9.34","10.36","7.11","9.44","8.82","8.07","9.27","8.97","10.30","10.91","9.81","9.25","9.19","9.50","9.43","9.17","11.18","11.76","10.12","10.72","10.36","10.10","11.13","10.56","10.53","10.89","10.42","9.35","11.00","12.23","12.31","13.14","14.53","14.92","13.82","14.14","12.32","12.88","14.92","11.96","9.94","12.60","12.56","11.76","12.33","11.89","11.43","12.22","11.47","9.83","9.39","10.37","11.89","8.63","7.84","10.24","9.40","10.64","12.29"
"Pork shoulder cuts, per kilogram 3","6.43","6.60","6.72","4.66","5.70","6.31","4.69","2.34","3.80","4.99","6.30","5.26","6.34","6.43","6.00","5.33","4.31","6.07","6.11","6.11","5.87","3.18","5.58","5.41","6.49","4.23","6.07","5.92","4.26","4.59","5.98","6.27","5.17","5.80","5.28","6.26","6.54","4.20","6.80","4.37","6.68","5.73","4.23","5.13","4.46","6.42","5.51","4.50","4.39","7.02","4.83","4.22","5.01","7.10","6.11","6.39","5.59","5.33","7.43","7.12","7.25","7.37","7.74","5.32","7.38","3.78","6.50","5.02","3.10","5.03","4.57","7.72","7.94","8.57","8.52","5.91","5.40"
"Whole chicken, per kilogram 3","4.20","6.31","6.25","6.35","5.33","6.76","4.45","4.91","6.50","4.75","6.31","5.05","5.29","4.68","6.49","6.80","6.63","5.16","4.53","4.52","5.06","4.31","4.40","4.64","4.30","4.96","6.80","6.00","4.35","5.01","4.16","6.68","5.52","4.66","4.98","4.03","5.56","5.90","7.30","6.65","4.18","5.43","4.59","5.12","4.68","5.56","4.54","7.55","4.94","4.51","5.94","4.91","4.57","5.05","4.95","5.23","4.99","4.92","4.59","5.20","5.42","5.85","6.43","5.38","5.72","4.92","6.47","5.33","5.12","5.18","5.65","5.07","5.04","4.94","7.32","7.87","5.00"
"Chicken breasts, per kilogram 3","12.76","12.80","11.83","11.93","13.55","11.99","14.00","11.96","12.97","12.50","11.16","11.46","12.18","13.75","12.34","12.26","12.96","11.51","14.01","11.30","12.86","12.54","11.91","11.83","12.10","13.20","13.02","13.27","12.02","11.63","12.60","11.00","11.97","12.12","13.97","12.07","10.56","13.38","13.33","12.90","11.90","11.93","13.87","11.06","10.58","11.25","11.56","12.71","12.56","12.55","12.35","13.95","12.07","10.88","13.66","12.27","13.76","14.24","13.01","15.01","14.24","17.77","17.63","15.33","14.07","14.34","12.98","12.04","12.91","14.92","14.68","12.38","13.38","13.67","15.17","14.09","15.90"
"Chicken thigh, per kilogram 3","10.28","10.63","9.12","10.62","9.38","9.93","8.81","9.95","8.33","9.89","10.13","8.74","7.84","8.25","11.06","9.92","8.97","10.59","9.65","9.74","10.16","9.53","10.61","8.23","10.29","8.41","10.56","10.91","8.73","8.98","9.70","10.31","11.06","9.16","11.41","10.87","10.45","8.87","10.01","9.51","9.48","10.74","9.12","10.82","11.26","10.72","11.13","9.26","9.55","10.11","9.32","9.30","9.59","11.79","9.51","11.34","12.29","11.60","11.43","12.31","11.13","11.76","12.11","11.99","11.62","8.34","11.90","12.73","11.76","12.03","12.07","12.10","12.45","12.72","13.53","12.59","12.55"
"Chicken drumsticks, per kilogram 3","6.65","6.79","5.42","6.68","5.51","6.25","5.41","6.34","5.21","6.18","6.61","5.42","5.12","5.05","6.79","6.42","5.49","6.73","6.05","5.88","6.11","5.55","6.42","4.87","6.18","5.45","6.29","6.97","5.42","5.49","6.00","6.20","6.30","5.36","7.06","6.20","6.63","5.63","6.25","5.66","5.67","6.63","5.46","6.78","6.68","6.48","6.96","5.46","5.70","6.08","5.71","5.65","5.65","6.66","5.34","6.64","7.13","5.34","5.54","5.69","6.55","5.33","6.64","7.08","5.23","5.18","5.16","7.00","7.08","5.09","5.28","5.21","5.83","8.13","5.88","6.29","5.04"
"Bacon, 500 grams 4","5.11","5.57","6.05","6.57","5.82","5.30","5.85","5.28","6.18","5.42","5.39","5.40","4.87","5.28","5.78","6.13","5.86","5.57","5.89","5.51","6.98","5.07","5.81","5.32","5.68","5.56","6.19","5.43","5.91","5.77","6.07","5.57","5.63","4.85","5.32","5.73","5.97","6.13","6.15","6.08","5.99","5.29","5.92","6.33","5.99","5.35","6.43","6.76","6.82","6.56","6.56","7.70","7.66","6.77","6.54","7.72","7.19","6.71","7.29","7.53","8.33","7.06","7.14","7.40","8.09","6.52","6.28","7.26","7.45","6.59","6.75","6.09","6.42","7.14","7.03","6.92","8.08"
"Wieners, 400 grams 4","2.67","2.67","2.77","2.48","3.00","2.95","2.97","2.66","2.54","2.91","2.59","2.57","2.90","2.72","2.74","2.54","2.61","2.85","2.94","2.60","2.63","3.03","2.70","3.15","2.80","2.92","2.70","2.66","2.63","3.11","2.74","2.69","2.72","3.07","2.95","3.11","2.90","2.94","2.96","2.78","2.83","3.11","3.05","3.31","3.22","3.33","3.52","3.51","2.83","3.01","3.11","3.37","3.00","3.60","3.59","3.37","3.13","3.35","3.42","3.59","3.08","3.28","3.27","3.30","3.09","3.69","3.56","3.57","3.07","3.48","3.31","3.52","3.26","3.12","3.34","3.39","3.39"
"Salmon, per kilogram 3","23.79","23.96","23.86","20.66","20.98","17.82","19.32","17.92","21.22","20.81","21.67","21.27","22.93","23.50","22.55","24.06","22.01","21.86","24.01","20.55","24.82","23.05","25.57","21.07","26.48","22.68","24.17","23.21","25.85","21.02","25.97","20.64","24.53","22.99","25.29","23.32","24.89","21.25","22.23","21.05","19.12","19.03","18.70","18.32","20.56","23.02","20.86","23.26","21.51","24.47","23.63","26.43","22.17","21.00","22.06","21.47","27.16","27.77","29.12","25.31","30.99","27.39","25.11","26.44","24.30","19.94","23.49","22.92","29.64","28.34","30.70","29.13","31.81","25.87","24.42","26.47","27.49"
"Shrimp, 300 grams 4","7.41","7.16","7.02","7.44","7.07","7.11","7.02","7.73","6.80","7.12","6.71","6.72","7.42","7.27","7.97","7.59","7.93","7.56","7.66","6.99","7.12","7.03","6.80","6.85","7.30","7.43","7.26","7.22","6.92","7.02","6.99","7.09","7.21","6.79","7.41","7.16","7.00","7.37","6.94","7.47","7.13","7.47","7.54","8.41","7.22","7.66","7.18","8.01","8.20","7.98","8.06","7.98","7.60","8.01","7.75","7.99","7.80","7.71","7.47","7.94","8.25","7.90","8.65","8.12","8.24","7.06","7.39","8.88","8.21","8.25","7.91","8.46","8.18","8.31","8.11","7.89","8.07"
"Canned salmon, 213 grams 4","3.04","2.66","2.94","3.08","3.24","3.32","3.03","3.13","3.22","2.98","3.00","2.86","2.92","3.29","3.26","2.88","3.14","3.17","3.40","3.25","3.75","3.81","3.93","3.96","4.18","4.27","4.33","4.70","4.83","4.97","4.52","4.36","4.64","4.56","4.44","4.58","4.28","4.50","4.47","4.35","4.60","4.60","4.72","4.70","4.45","4.68","4.54","4.34","4.64","4.49","4.60","4.66","4.46","4.45","4.77","4.73","4.42","4.45","4.36","4.60","4.31","4.50","4.96","4.80","4.89","4.69","4.53","4.76","4.81","4.70","4.77","4.85","4.65","4.93","5.07","4.85","4.75"
"Canned tuna, 170 grams 3","1.42","1.64","1.57","1.79","1.75","1.73","1.46","1.88","1.67","1.62","1.57","1.38","1.72","1.66","1.65","1.54","1.77","1.41","1.92","1.87","1.59","1.55","1.73","1.48","1.62","1.72","1.67","1.37","1.70","1.75","1.59","1.57","1.56","1.62","1.94","2.00","1.82","1.80","1.70","1.44","1.64","1.76","1.48","1.85","1.56","1.73","1.56","1.71","1.51","1.85","1.69","1.40","1.62","1.61","1.57","1.84","1.62","1.68","1.49","1.88","1.78","1.82","1.68","1.53","1.75","1.44","1.54","1.80","1.60","1.69","1.78","1.90","1.55","2.01","1.90","1.48","1.91"
"Meatless burgers, 226 grams 4","4.14","4.10","4.31","4.17","4.13","4.34","4.13","4.27","4.15","4.10","4.30","4.18","4.01","4.34","4.51","4.24","4.66","4.56","4.75","4.75","4.51","4.29","4.71","5.41","6.51","5.61","5.80","5.77","5.68","5.30","5.34","5.64","5.16","5.28","5.19","5.46","5.23","5.41","5.09","5.39","5.49","5.59","5.83","5.46","5.46","5.62","5.46","5.52","5.58","5.77","5.98","5.94","6.13","5.63","5.84","5.70","5.54","5.85","5.58","6.10","5.90","5.70","6.02","6.11","6.04","6.02","5.23","6.30","6.20","6.09","6.22","6.27","5.98","6.05","5.82","6.13","6.15"
"Milk, 1 litre 3","2.20","2.20","2.22","2.23","2.22","2.22","2.21","2.22","2.22","2.25","2.24","2.23","2.24","2.27","2.29","2.28","2.25","2.21","2.31","2.32","2.33","2.31","2.30","2.30","2.29","2.32","2.34","2.33","2.32","2.30","2.29","2.30","2.33","2.37","2.40","2.41","2.41","2.41","2.42","2.41","2.41","2.40","2.39","2.40","2.40","2.47","2.47","2.46","2.46","2.48","2.49","2.50","2.49","2.47","2.44","2.44","2.43","2.55","2.53","2.53","2.55","2.56","2.57","2.59","2.64","2.60","2.65","2.68","2.67","2.70","2.71","2.71","2.72","2.73","2.75","2.74","2.73"
"Milk, 2 litres 3","4.18","4.17","4.17","4.20","4.21","4.17","4.13","4.14","4.19","4.20","4.18","4.19","4.20","4.20","4.18","4.26","4.33","4.33","4.28","4.27","4.32","4.24","4.23","4.29","4.25","4.35","4.35","4.33","4.29","4.30","4.28","4.27","4.30","4.32","4.41","4.48","4.51","4.46","4.45","4.45","4.45","4.41","4.44","4.42","4.46","4.59","4.54","4.50","4.59","4.56","4.62","4.56","4.55","4.53","4.54","4.51","4.55","4.71","4.74","4.79","4.77","4.74","4.73","4.76","4.84","4.78","4.91","4.91","4.86","4.87","4.90","4.91","4.92","4.95","5.04","4.96","4.89"
"Milk, 4 litres 3","6.53","6.52","6.53","6.51","6.52","6.52","6.51","6.52","6.53","6.58","6.58","6.57","6.58","6.59","6.62","6.60","6.77","6.78","6.77","6.77","6.78","6.78","6.79","6.77","6.79","6.79","6.80","6.79","6.78","6.76","6.82","6.83","6.80","6.90","6.95","6.96","6.94","6.95","6.96","6.93","6.93","6.92","6.93","6.95","6.96","7.13","7.15","7.16","7.13","7.17","7.17","7.15","7.15","7.15","7.16","7.16","7.16","7.56","7.57","7.57","7.57","7.57","7.57","7.57","7.78","7.75","7.78","7.80","7.80","7.86","7.87","7.87","7.87","7.89","7.91","7.91","7.95"
"Soy milk, 1.89 litres 4","3.66","3.81","3.94","3.71","3.80","3.63","3.66","3.74","3.74","3.79","3.91","3.80","3.73","3.65","3.61","3.62","3.73","3.84","3.86","4.02","3.80","3.80","3.81","3.94","3.98","3.90","3.84","3.76","3.84","3.86","3.86","3.98","3.98","3.96","3.87","3.86","4.05","4.04","3.98","3.98","3.97","4.08","3.96","4.09","4.12","4.06","4.02","3.98","4.16","4.15","4.19","4.04","4.07","4.04","4.13","4.09","4.06","4.04","4.33","4.14","4.13","4.19","4.17","4.14","4.16","4.33","4.58","4.69","4.65","4.37","4.44","4.38","4.52","4.50","4.49","4.42","4.34"
"Nut milk, 1.89 litres 4","3.86","3.93","3.98","3.61","3.74","3.81","3.83","3.92","3.72","3.84","3.94","3.81","3.76","3.83","3.92","3.80","3.85","3.93","3.91","4.02","3.79","3.84","3.86","3.93","3.87","3.95","4.03","3.82","3.89","3.92","3.84","4.08","3.99","3.89","3.99","3.84","4.00","3.91","3.84","3.95","3.86","3.99","3.87","3.97","4.03","3.97","3.84","3.78","4.00","3.97","4.04","3.84","3.78","3.91","3.93","3.90","3.82","3.79","4.08","4.06","4.00","4.10","3.98","3.97","4.20","4.21","4.19","4.46","4.46","4.23","4.42","4.23","4.24","4.29","4.16","4.41","4.31"
"Cream, 1 litre 3","3.56","3.00","3.68","3.82","3.71","3.19","3.64","2.77","3.63","4.05","3.48","3.64","3.70","3.33","3.64","3.94","3.20","3.60","3.39","3.10","3.23","3.63","4.06","3.26","3.72","3.55","4.05","3.65","4.06","3.42","3.20","3.18","3.35","3.64","3.97","3.85","3.72","3.90","3.71","3.74","4.26","3.59","3.45","3.19","3.75","3.88","3.78","4.15","4.05","3.84","4.18","4.38","4.00","4.16","3.80","3.48","4.18","4.43","3.70","4.08","4.28","4.54","4.59","4.66","4.45","4.32","4.10","3.48","4.69","3.97","4.42","4.46","4.80","4.88","4.58","4.37","4.40"
"Butter, 454 grams 3","4.59","4.22","3.61","4.15","3.78","3.84","3.85","3.85","4.38","4.02","3.96","4.14","3.82","4.18","3.61","3.99","3.81","3.68","3.66","3.78","4.61","3.92","4.25","3.94","3.80","4.33","3.75","4.58","3.96","3.91","3.84","3.68","4.13","4.84","4.88","4.42","4.30","4.31","3.85","4.40","3.99","3.98","4.10","4.55","4.16","5.17","3.92","5.07","4.89","4.92","4.33","4.96","4.26","4.35","4.50","4.76","4.18","4.90","5.72","4.46","6.02","6.11","6.32","6.08","4.47","5.54","5.01","5.93","5.86","6.21","5.56","5.77","6.59","6.25","6.72","6.20","5.11"
"Margarine, 907 grams 4","4.67","4.60","3.79","4.06","4.27","4.34","3.95","4.00","4.13","4.15","4.28","4.64","4.33","4.58","4.73","4.38","4.06","4.35","4.05","4.12","4.32","4.54","4.39","4.49","4.55","4.49","4.31","4.43","4.25","4.32","4.10","4.22","4.53","4.19","4.64","4.79","4.34","4.37","4.46","4.69","4.47","4.64","4.19","4.20","4.65","4.92","4.57","4.71","4.52","5.06","4.66","4.87","5.14","5.18","5.01","4.99","4.88","5.40","6.32","6.08","6.16","6.15","6.32","6.60","7.06","6.67","6.70","6.84","6.89","6.86","7.16","6.83","7.13","7.30","7.26","6.97","7.37"
"Block cheese, 500 grams 4","5.77","5.43","6.17","5.79","5.67","5.40","5.71","5.07","5.74","5.64","5.28","5.70","5.67","5.37","5.87","5.81","5.57","5.34","5.85","5.09","5.77","5.51","5.90","6.03","5.96","5.75","6.36","6.04","6.15","5.62","5.82","5.51","5.93","5.89","5.78","6.18","6.19","5.94","6.21","6.43","6.03","5.60","6.41","5.82","5.86","5.85","5.81","6.27","6.13","5.95","6.23","5.75","6.18","5.57","6.08","5.81","6.06","6.13","6.07","6.57","6.55","6.52","6.61","6.24","6.62","5.83","6.37","6.11","6.43","6.32","6.17","6.60","6.53","6.45","6.61","6.95","6.66"
"Yogurt, 500 grams 4","2.66","2.59","2.70","2.71","2.60","2.56","2.62","2.59","2.45","2.57","2.48","2.57","2.57","2.67","2.67","2.55","2.61","2.73","2.72","2.63","2.70","2.73","2.66","2.79","2.71","2.74","2.76","2.66","2.70","2.74","2.57","2.78","2.62","2.54","2.77","2.72","2.74","2.89","2.91","2.81","2.74","2.74","2.79","2.85","2.70","2.82","2.72","2.90","2.95","2.93","2.96","2.92","2.83","2.91","2.91","2.95","2.68","3.07","3.05","3.11","3.04","2.99","3.11","3.20","3.02","2.91","3.00","3.26","3.00","3.15","3.17","3.19","3.30","3.22","3.40","3.43","3.23"
"Eggs, 1 dozen 3","3.02","3.15","3.06","2.96","2.86","2.75","3.15","2.92","2.95","2.86","3.16","3.33","2.79","3.38","2.83","3.16","2.94","2.93","3.48","3.52","2.96","3.08","3.22","3.16","3.40","3.50","3.07","3.13","2.97","3.19","3.54","3.56","3.00","3.47","3.27","3.61","3.54","3.51","3.52","3.60","3.58","3.54","3.57","3.52","3.59","3.65","3.78","3.83","3.67","3.82","3.71","3.85","3.91","3.91","3.55","3.26","3.10","3.80","3.92","3.10","3.51","3.42","3.77","4.01","4.45","3.76","4.24","3.36","3.52","3.86","3.94","3.68","3.50","3.84","4.26","3.87","3.77"
"Apples, per kilogram 3","3.90","3.97","4.26","4.21","3.69","3.60","3.69","4.10","4.04","3.86","3.87","3.94","4.00","4.19","4.07","4.19","3.87","3.46","3.97","4.61","4.12","4.39","4.64","4.56","4.78","4.77","4.49","5.10","4.27","3.81","4.60","4.92","4.41","4.65","4.67","4.54","4.84","4.99","4.93","4.92","4.00","3.93","4.48","4.90","4.72","4.68","5.07","4.72","5.01","5.19","5.55","5.50","4.77","4.64","4.48","5.44","5.00","5.20","5.82","5.73","5.96","5.94","6.13","6.11","5.29","4.15","5.03","5.97","5.04","6.19","5.96","5.72","6.20","6.35","6.23","6.35","4.59"
"Oranges, per kilogram 3","3.79","3.76","2.99","2.87","3.31","2.93","3.41","3.33","3.11","3.84","3.06","3.47","3.86","3.22","2.92","3.23","3.51","3.70","3.68","3.85","3.72","3.75","3.88","4.09","4.00","3.77","3.02","3.54","3.73","3.36","2.43","4.45","5.54","5.66","5.28","5.19","4.34","4.55","3.62","3.36","4.35","4.42","4.35","4.26","5.44","4.85","5.73","5.21","4.66","4.30","3.48","3.17","4.32","4.37","4.57","4.90","6.06","5.51","6.70","5.50","5.20","4.96","4.97","4.75","4.91","5.05","5.10","3.64","4.15","6.32","6.46","6.02","6.26","6.21","5.86","5.72","5.93"
"Oranges, 1.36 kilograms 3 4","5.06","5.41","4.75","4.48","4.51","4.35","4.93","4.88","4.54","5.60","4.49","4.93","5.30","4.75","4.56","4.94","4.16","5.20","5.13","5.09","5.39","3.73","4.19","3.55","3.75","4.18","3.99","4.14","3.85","4.29","3.97","3.71","3.59","3.56","3.41","4.14","4.69","4.62","4.68","4.88","4.39","3.96","3.88","3.60","3.98","4.38","4.38","4.69","4.47","4.54","4.25","4.59","4.33","4.15","4.41","4.57","4.86","4.99","5.33","5.53","5.50","5.59","4.93","5.16","5.17","5.33","5.18","5.24","5.56","5.06","5.09","5.74","6.60","6.55","6.02","5.85","5.80"
"Bananas, per kilogram 3","1.73","1.73","1.71","1.69","1.69","1.70","1.68","1.68","1.72","1.72","1.72","1.72","1.72","1.72","1.70","1.70","1.67","1.71","1.72","1.71","1.72","1.73","1.72","1.72","1.72","1.73","1.71","1.72","1.72","1.72","1.71","1.71","1.71","1.72","1.74","1.76","1.75","1.74","1.67","1.73","1.74","1.73","1.73","1.73","1.75","1.75","1.75","1.76","1.75","1.74","1.73","1.74","1.74","1.74","1.73","1.82","1.84","1.84","1.84","1.84","1.84","1.85","1.83","1.82","1.83","1.78","1.82","1.84","1.84","1.84","1.84","1.85","1.84","1.84","1.83","1.82","1.82"
"Pears, per kilogram 3","4.55","4.53","4.12","3.60","4.19","3.15","3.53","4.28","4.25","4.06","4.11","4.27","4.21","4.35","4.26","4.57","4.34","3.85","3.86","4.26","3.60","4.21","4.13","4.46","4.47","4.67","4.28","4.66","4.57","3.96","4.06","4.55","4.00","4.81","5.15","4.79","4.95","4.99","5.15","5.32","4.84","4.98","5.20","5.16","5.00","4.89","4.94","4.18","4.41","4.81","4.92","5.22","5.54","5.52","4.30","5.52","5.25","4.87","5.72","5.56","5.52","6.02","5.45","6.35","6.62","6.08","5.01","5.25","5.11","6.60","6.58","4.99","5.75","6.46","6.29","6.70","6.33"
"Lemons, unit 3","0.84","0.84","0.76","0.73","0.62","0.63","0.80","1.00","0.95","0.90","0.85","0.88","0.91","0.90","0.84","0.85","0.80","0.84","0.79","0.74","0.71","0.57","0.64","0.77","0.73","0.71","0.80","0.83","0.81","0.79","0.99","0.86","0.80","0.81","0.80","0.86","0.78","0.88","0.83","0.79","0.77","0.87","0.85","0.99","0.91","0.85","0.87","0.85","0.84","0.81","0.75","0.73","0.81","0.84","0.93","0.98","1.00","0.86","0.89","0.87","0.93","0.92","0.94","0.86","0.97","0.89","0.88","0.93","0.83","0.92","0.91","0.93","0.92","0.85","1.04","0.98","0.92"
"Limes, unit 3","0.49","0.44","0.33","0.52","0.51","0.49","0.50","0.49","0.51","0.58","0.62","0.63","0.61","0.53","0.49","0.47","0.45","0.45","0.49","0.50","0.48","0.56","0.62","0.73","0.65","0.71","0.41","0.53","0.65","0.70","0.62","0.53","0.50","0.50","0.58","0.69","0.67","0.66","0.65","0.68","0.67","0.70","0.67","0.72","0.62","0.71","0.72","0.72","0.74","0.73","0.77","0.73","0.73","0.77","0.78","0.82","0.84","0.96","1.10","1.09","1.08","0.87","0.73","0.71","0.70","0.70","0.79","0.82","0.81","0.86","0.87","0.86","0.90","0.84","0.89","0.78","0.79"
"Grapes, per kilogram 3","6.46","4.00","4.72","4.33","3.66","4.27","4.36","6.14","6.24","4.68","3.85","5.25","5.31","5.33","5.32","4.42","3.50","4.33","3.96","5.15","5.31","7.41","5.78","5.67","6.89","4.93","4.35","4.22","4.26","4.09","4.56","5.47","5.39","5.77","5.26","5.98","5.67","4.60","4.34","4.88","4.45","4.47","4.74","5.60","5.40","5.54","5.69","4.25","5.55","5.44","5.52","5.08","4.94","4.11","5.51","5.96","6.60","7.05","5.91","5.08","6.99","5.10","5.65","5.22","4.81","4.26","5.29","7.03","6.14","7.07","5.48","6.05","10.41","8.96","6.21","5.79","7.42"
"Cantaloupe, unit 3","2.43","3.21","3.37","1.92","2.24","2.50","3.06","2.34","2.51","2.16","1.54","2.21","2.31","3.47","3.02","1.70","2.30","3.37","3.67","3.73","2.57","2.58","2.54","2.31","2.99","3.84","3.04","2.22","1.89","3.62","3.55","2.78","2.46","2.22","2.19","2.91","2.99","3.37","3.68","2.30","2.69","4.05","3.51","2.93","2.92","3.73","2.66","2.83","2.71","3.82","3.69","2.34","2.57","3.93","4.19","3.30","3.80","3.58","2.92","3.85","4.14","3.82","4.43","2.31","3.36","4.50","5.06","4.46","3.89","3.82","2.87","2.82","3.65","4.09","2.69","2.55","3.23"
"Strawberries, 454 grams 4","2.68","3.08","3.46","3.26","2.58","2.92","4.62","3.16","3.98","2.35","2.86","3.06","2.59","2.56","3.58","2.99","2.49","2.95","4.49","6.47","5.85","3.23","2.81","2.92","2.33","3.06","3.72","2.79","2.75","3.65","4.55","5.92","4.37","3.17","2.88","2.85","2.51","2.95","5.23","4.47","3.32","4.88","5.38","4.05","3.93","4.01","2.88","3.38","3.15","3.36","4.14","5.60","4.29","4.90","6.54","5.01","3.68","3.29","2.93","3.92","3.29","4.22","4.98","5.70","4.77","5.36","6.96","4.85","4.26","4.31","3.44","6.06","4.00","4.14","4.70","5.02","5.50"
"Avocado, unit 3","2.62","2.42","2.43","2.48","2.32","1.90","1.39","2.09","1.62","1.90","1.76","1.94","2.01","1.96","2.01","1.94","2.07","1.70","1.73","1.84","1.84","1.73","1.66","2.04","2.14","2.50","2.09","2.17","2.20","1.81","1.87","1.62","1.84","1.89","1.86","2.01","2.06","1.87","1.96","1.45","1.62","1.52","1.53","1.57","1.46","1.50","1.66","1.94","1.82","2.02","1.89","1.89","2.03","1.96","1.64","1.76","2.01","2.30","2.39","2.72","2.71","2.58","2.39","2.48","1.72","1.61","1.59","1.51","1.51","1.66","1.51","2.19","2.08","2.22","2.06","2.38","2.03"
"Potatoes, 4.54 kilograms 3","4.07","4.64","4.40","4.31","3.06","3.08","4.15","3.21","3.72","3.59","3.73","3.41","4.08","5.04","4.63","4.70","3.18","2.84","3.64","4.25","5.31","4.20","4.49","4.11","5.07","5.49","5.23","4.44","3.28","2.50","3.94","3.87","4.35","3.67","4.78","4.84","4.89","4.45","4.22","4.08","2.92","2.13","4.06","3.33","4.31","4.13","3.66","5.39","4.88","4.97","4.46","4.24","3.60","2.19","3.77","3.60","4.61","3.50","4.02","3.66","5.21","3.94","4.70","4.90","3.88","2.15","4.66","3.78","4.90","4.10","4.51","5.04","4.78","5.66","5.35","5.65","4.08"
"Potatoes, per kilogram 3","3.88","4.10","4.35","4.17","4.00","3.70","3.61","3.61","3.59","3.63","3.77","3.91","3.87","3.99","4.59","4.53","3.88","3.84","3.85","4.01","4.00","3.86","4.08","4.10","4.10","5.00","4.72","4.56","4.59","4.35","4.66","4.52","4.58","4.48","4.66","4.77","4.80","4.89","4.84","4.35","4.39","4.57","4.60","4.80","5.00","4.97","4.91","4.77","4.68","4.70","4.61","4.52","4.69","4.65","4.38","4.38","4.51","4.53","4.51","4.50","4.54","4.58","4.66","4.30","4.37","4.27","4.29","4.32","4.37","4.71","4.75","4.84","4.98","5.40","5.50","5.30","5.24"
"Sweet potatoes, per kilogram 3","3.19","3.47","3.51","3.52","3.08","3.22","2.93","2.90","3.11","3.29","2.90","3.36","3.44","3.54","3.60","3.77","3.32","3.32","3.31","3.40","3.22","3.54","3.72","3.72","4.35","4.67","4.73","4.80","4.27","3.75","3.52","3.51","3.67","3.49","4.33","4.41","4.45","4.51","4.33","4.21","4.13","3.86","3.17","3.09","3.17","3.33","3.69","3.70","3.78","3.83","3.90","3.85","3.61","3.55","3.11","3.26","3.06","3.14","3.32","3.45","4.20","4.25","4.35","4.34","4.19","3.79","3.39","3.83","3.06","3.70","3.70","3.77","4.50","4.50","4.70","4.60","3.73"
"Tomatoes, per kilogram 3","3.21","3.65","3.37","3.51","3.46","3.71","4.57","6.24","6.67","5.14","4.29","3.66","3.36","3.70","3.57","3.51","3.63","4.34","5.69","6.63","7.05","6.21","5.10","4.30","3.82","4.06","3.87","3.67","4.13","4.16","5.81","6.73","8.97","8.89","7.19","5.68","5.89","6.41","6.79","6.62","6.11","6.77","6.41","6.77","8.07","6.36","5.22","3.71","3.70","4.12","4.60","4.32","4.61","5.45","6.32","6.50","6.22","6.19","4.83","4.33","4.16","4.06","4.60","4.64","4.81","4.63","6.99","7.46","7.82","6.80","5.80","5.28","3.78","4.53","5.00","4.62","4.54"
"Cabbage, per kilogram 3","2.40","2.53","2.02","1.55","1.29","1.21","1.21","1.51","1.78","2.36","2.19","2.31","2.44","2.64","2.31","1.95","1.78","1.61","1.87","2.72","2.75","2.88","3.25","3.30","3.58","3.74","3.15","2.29","2.14","1.63","1.67","2.29","2.22","2.12","2.01","2.02","2.58","3.61","3.04","2.53","2.12","2.03","2.05","2.29","2.38","2.28","2.45","2.63","2.71","2.93","2.70","2.41","2.10","1.94","1.71","1.84","2.16","2.14","2.22","2.33","2.50","2.70","2.92","2.64","2.17","2.06","2.12","2.09","2.47","2.56","2.48","2.58","2.98","3.04","2.93","2.41","1.93"
"Carrots, 1.36 kilograms 4","3.40","3.41","3.24","2.67","2.43","2.24","1.99","2.33","2.58","2.76","3.24","3.54","3.76","3.86","3.75","2.92","2.78","2.48","2.16","2.58","2.82","3.00","3.03","3.37","3.83","3.92","3.87","2.81","3.44","2.73","2.12","2.82","2.83","3.06","3.12","4.02","4.13","4.16","3.93","2.96","3.17","3.18","2.68","2.99","2.93","3.16","3.10","3.56","3.77","3.97","3.89","2.54","3.00","2.70","2.55","2.93","2.99","2.88","3.42","4.04","4.31","4.29","4.60","3.49","3.06","2.79","2.09","2.93","2.61","2.74","3.53","3.96","4.46","4.69","4.21","3.84","3.32"
"Onions, per kilogram 3","3.15","3.21","3.37","3.58","3.10","3.17","3.10","3.20","3.19","3.17","3.12","3.13","3.31","3.52","3.66","3.99","3.55","3.45","3.77","3.88","3.80","3.69","3.87","4.47","4.80","5.20","5.58","5.02","4.75","5.34","4.60","4.53","4.41","4.31","4.25","4.46","4.52","4.83","4.66","4.20","4.18","4.32","4.31","4.30","4.22","4.17","4.12","4.10","4.14","4.14","4.22","4.57","4.45","4.29","4.28","4.28","4.27","4.40","4.53","5.04","5.32","5.75","5.90","5.70","5.35","4.83","4.61","4.42","4.24","4.48","4.33","4.66","4.70","4.85","5.03","5.33","5.27"
"Onions, 1.36 kilograms 4","2.92","3.13","3.13","3.23","3.01","2.92","2.66","2.74","2.94","2.80","2.88","3.00","3.17","3.52","3.49","3.43","3.25","3.16","2.87","3.05","3.42","3.66","3.62","3.81","4.29","4.51","4.66","3.72","4.22","4.04","2.99","3.36","3.63","3.72","3.48","3.54","3.76","3.76","3.75","3.60","3.90","3.79","3.17","3.57","3.37","3.69","3.52","3.64","3.86","3.84","3.79","3.47","3.85","3.53","3.07","3.42","3.54","3.80","3.46","4.11","4.26","4.44","4.37","4.48","4.13","3.59","2.85","3.62","3.26","3.53","3.44","3.74","3.81","4.13","3.93","4.31","3.92"
"Celery, unit 3","3.27","3.60","2.18","1.29","1.10","1.26","2.21","2.36","2.32","2.07","2.24","2.36","2.44","2.57","2.26","1.33","1.24","1.59","2.55","3.23","3.18","3.51","4.21","4.99","4.93","5.18","2.73","1.28","1.43","1.70","2.59","2.52","2.48","2.29","2.47","2.81","2.59","2.80","2.33","1.42","1.72","1.61","2.27","2.38","2.94","2.86","2.53","2.23","2.33","2.46","1.98","1.75","1.81","2.00","2.76","2.78","2.82","2.97","3.74","3.42","3.56","4.22","2.24","1.75","1.67","1.93","3.13","3.47","4.27","3.85","3.46","3.58","3.69","4.02","3.36","2.16","1.98"
"Cucumber, unit 3","1.07","1.19","1.02","0.89","1.09","1.41","1.68","1.69","1.67","1.62","1.31","1.07","1.17","1.18","1.08","1.02","1.45","1.92","1.93","2.16","1.98","1.91","1.24","1.07","1.03","1.03","1.09","1.29","1.42","1.74","1.99","1.80","1.83","1.93","1.27","1.33","1.23","1.19","1.46","1.50","1.65","2.09","2.14","1.40","1.77","2.04","1.27","1.21","1.37","1.59","1.43","1.53","1.52","1.97","2.03","1.43","1.66","1.60","1.32","1.14","1.27","1.16","1.13","1.23","1.69","1.91","1.42","1.48","1.82","2.64","1.69","1.46","1.30","1.26","1.29","1.17","1.64"
"Mushrooms, 227 grams 4","1.60","1.52","1.41","1.52","1.32","1.38","1.47","1.48","1.36","1.44","1.70","1.77","1.60","1.74","1.53","1.73","1.53","1.59","1.80","1.63","1.53","1.77","1.73","1.64","1.67","1.73","1.80","1.87","1.76","1.55","1.48","1.51","1.55","1.51","1.89","1.56","2.08","1.74","1.98","2.10","2.13","1.53","1.94","1.66","1.79","1.63","1.42","1.79","2.06","2.25","1.71","2.12","1.84","1.80","1.97","1.74","1.79","2.19","1.74","2.01","2.09","2.11","2.10","2.27","1.72","1.93","1.79","2.12","1.84","2.24","1.64","2.07","1.83","2.19","2.24","2.06","1.65"
"Iceberg lettuce, unit 3","2.37","1.69","1.25","1.22","1.08","1.76","1.92","1.79","1.78","1.68","1.75","2.10","2.03","1.63","1.39","1.47","1.41","1.65","2.64","3.65","2.20","2.09","2.71","2.33","2.28","2.37","1.77","1.83","1.70","2.00","3.13","2.72","2.43","2.21","2.01","2.34","2.27","2.37","1.64","1.67","1.84","2.72","2.97","2.60","2.13","2.24","1.93","2.13","1.89","1.72","1.64","1.70","1.73","2.60","3.91","2.32","2.29","2.42","3.11","3.04","2.78","2.41","1.56","1.70","2.25","3.04","4.38","4.13","3.31","3.00","2.68","3.03","3.22","2.59","1.89","2.74","2.29"
"Romaine lettuce, unit 3","2.55","1.32","0.89","0.88","1.07","1.50","2.29","2.33","2.35","2.38","2.67","2.62","2.45","1.15","0.99","0.91","1.24","1.91","3.01","3.30","2.35","2.45","2.83","2.66","2.50","1.51","1.30","1.33","1.52","1.93","2.96","2.97","2.83","2.62","2.69","2.57","2.46","1.66","1.27","1.36","1.83","3.30","3.51","3.12","2.73","2.52","2.12","2.37","1.98","1.51","1.23","1.50","1.76","2.12","3.47","3.24","3.23","3.26","3.82","3.50","3.02","2.22","1.50","1.48","2.43","3.48","4.58","4.53","3.79","3.51","3.37","3.41","3.36","2.19","1.46","2.07","2.01"
"Broccoli, unit 3","2.98","2.80","1.97","1.68","1.43","1.80","2.58","2.42","2.52","2.27","2.30","2.28","2.36","2.81","2.52","1.91","1.74","2.07","2.75","3.04","2.88","2.62","2.91","2.41","2.81","3.10","2.30","1.77","1.69","1.93","2.71","2.64","2.24","2.40","2.07","2.30","2.44","2.48","1.90","2.03","2.06","2.18","2.59","2.45","2.46","2.30","2.16","2.24","2.32","2.30","1.95","2.03","1.73","2.26","2.96","3.11","2.24","2.57","2.52","2.29","2.54","2.78","2.51","1.98","1.87","1.96","2.56","2.88","3.17","3.06","2.43","2.70","3.14","2.93","2.63","2.12","2.00"
"Peppers, per kilogram 3","6.34","7.13","6.43","4.88","3.31","4.03","6.61","7.79","7.65","6.30","6.69","5.84","7.06","7.45","7.81","4.89","3.18","5.97","7.70","8.19","8.67","7.31","9.15","7.42","8.66","9.00","9.65","5.51","3.10","5.24","6.47","7.03","7.84","7.54","8.53","7.00","8.84","10.44","9.72","5.18","3.92","6.88","7.33","8.15","8.97","8.74","6.89","5.79","7.02","7.58","7.13","4.42","3.79","5.95","7.93","8.06","8.19","7.61","7.67","6.96","7.42","7.62","7.73","5.36","4.52","6.41","8.72","8.94","8.41","8.65","7.61","8.25","8.02","7.98","7.56","5.29","5.46"
"Squash, per kilogram 3","4.14","4.59","5.03","4.48","2.56","2.38","2.47","2.99","3.76","3.99","4.06","3.96","4.59","4.57","4.39","3.75","2.61","2.53","2.78","3.06","3.86","4.10","4.31","4.14","4.84","4.84","4.72","4.33","3.30","3.00","2.85","3.38","4.29","4.46","4.65","4.92","5.15","4.99","5.29","4.67","3.30","2.97","2.78","4.07","4.74","4.57","4.41","4.31","4.38","4.41","4.56","4.06","3.12","3.03","2.60","3.03","3.84","5.05","4.64","4.19","4.84","5.01","5.11","4.81","3.30","2.54","3.29","4.30","5.10","6.16","6.18","6.07","6.31","6.09","5.54","4.72","3.47"
"Salad greens, 142 grams 4","3.65","3.74","3.78","3.81","3.99","3.69","3.72","3.71","3.22","3.32","3.80","3.19","3.68","3.18","3.49","3.39","3.67","3.81","3.57","4.14","3.60","3.15","3.78","3.53","3.46","3.67","3.67","3.73","3.90","3.81","3.57","3.79","3.54","3.26","3.69","3.63","3.86","3.67","3.73","4.08","3.59","3.80","3.33","3.83","3.79","3.75","4.25","3.52","3.75","4.05","3.76","3.94","4.11","3.77","3.34","4.08","3.86","3.81","4.17","3.94","4.35","4.16","3.97","4.01","4.07","4.01","4.15","4.22","4.19","4.32","4.29","4.13","4.59","3.88","3.63","3.89","4.25"
"Frozen french fried potatoes, 750 grams 4","2.21","2.16","2.16","2.18","2.17","2.24","2.29","2.26","2.18","2.21","2.20","2.29","2.27","2.22","2.31","2.26","2.29","2.26","2.28","2.33","2.36","2.31","2.35","2.42","2.36","2.31","2.35","2.44","2.43","2.53","2.50","2.58","2.44","2.46","2.59","2.60","2.63","2.51","2.52","2.08","2.44","2.50","2.51","2.65","2.54","2.68","2.60","2.63","2.69","2.67","2.73","2.60","2.59","2.60","2.67","2.77","2.72","2.79","2.72","2.81","2.92","2.88","2.95","3.07","3.16","3.17","3.01","3.19","3.04","3.19","3.14","3.25","3.36","3.51","3.42","3.39","3.39"
"Frozen green beans, 750 grams 4","3.34","3.92","4.00","3.96","3.66","3.49","3.51","3.54","3.40","3.36","3.20","3.16","3.21","3.15","3.38","3.10","3.22","3.22","3.31","3.38","3.32","2.92","3.51","3.81","3.41","3.48","3.29","3.24","3.33","3.44","3.46","3.49","3.41","3.38","3.63","3.54","3.56","3.53","3.33","3.45","3.36","3.29","3.36","3.44","3.44","3.54","3.68","3.71","3.64","3.53","3.43","3.43","3.59","3.51","3.64","3.75","3.58","3.63","3.77","3.77","3.77","3.70","3.74","3.56","3.58","3.45","3.76","3.99","3.63","3.88","4.31","4.35","4.21","4.25","4.25","4.03","4.09"
"Frozen broccoli, 500 grams 3","3.26","3.24","3.53","3.42","3.30","3.32","3.20","3.06","3.25","3.37","2.96","3.44","3.44","3.07","3.39","3.20","3.10","3.21","3.07","3.19","3.21","3.05","3.34","3.21","3.25","3.28","3.25","3.10","3.00","3.22","3.39","3.09","3.39","3.32","3.53","3.61","3.47","3.50","3.66","3.65","3.37","3.16","2.98","3.17","3.20","3.39","3.58","3.71","3.85","3.80","3.89","3.99","3.78","3.60","3.59","3.37","3.41","3.66","3.90","3.56","3.82","3.78","4.07","3.73","3.82","4.00","4.01","4.11","3.81","3.68","4.02","3.90","4.25","4.19","4.24","4.36","4.01"
"Frozen corn, 750 grams  4","2.98","3.20","3.18","3.20","3.11","2.96","3.07","3.03","2.99","3.03","2.93","3.09","3.07","3.03","3.16","3.04","2.89","3.07","3.09","3.06","3.02","2.82","3.14","3.08","3.10","3.20","3.13","3.10","3.00","3.16","3.25","3.15","3.22","3.15","3.35","3.38","3.41","3.38","3.40","3.41","3.35","3.19","3.18","3.25","3.19","3.25","3.33","3.40","3.43","3.39","3.42","3.42","3.39","3.33","3.44","3.46","3.38","3.40","3.53","3.34","3.44","3.38","3.50","3.20","3.48","3.48","3.47","3.58","3.43","3.50","3.71","3.84","3.81","3.81","3.86","3.75","3.74"
"Frozen mixed vegetables, 750 grams  4","3.17","3.34","3.62","3.49","3.31","3.12","3.25","3.21","3.10","3.10","3.15","3.20","3.18","3.19","3.25","3.18","3.05","3.25","3.23","3.10","3.18","3.00","3.36","3.25","3.10","3.23","3.23","3.35","3.02","3.35","3.27","3.06","3.37","3.30","3.56","3.79","3.74","3.72","3.71","3.69","3.66","3.44","3.36","3.51","3.41","3.33","3.49","3.61","3.65","3.63","3.71","3.69","3.61","3.53","3.83","3.75","3.72","3.73","3.68","3.61","3.83","3.72","3.81","3.54","3.71","3.66","3.57","3.95","3.70","3.71","3.99","4.14","4.12","4.15","4.16","4.10","4.09"
"Frozen peas, 750 grams 4","3.00","3.15","3.17","3.19","3.04","2.91","3.02","2.96","2.89","3.03","2.90","2.98","2.95","2.94","3.03","2.91","2.85","2.97","2.97","2.95","2.94","2.72","3.11","2.98","2.94","3.05","2.97","2.97","2.88","3.08","3.11","3.05","3.11","3.06","3.35","3.18","3.23","3.22","3.24","3.29","3.23","3.09","3.09","3.19","3.15","3.11","3.05","3.10","3.12","3.07","3.09","3.20","3.23","3.17","3.31","3.41","3.34","3.38","3.41","3.30","3.37","3.34","3.41","3.19","3.50","3.34","3.49","3.66","3.44","3.38","3.72","4.16","3.74","3.72","3.80","3.77","3.68"
"Frozen pizza, 390 grams 4","4.34","3.75","4.01","3.70","3.86","3.98","3.80","3.87","3.68","3.89","3.72","3.77","3.99","4.00","3.87","3.78","3.82","4.22","3.78","3.98","4.39","3.91","4.01","3.79","4.11","4.27","3.78","3.89","3.81","4.14","4.11","4.04","3.96","3.92","4.02","4.50","4.39","4.30","4.08","4.29","3.77","4.60","3.98","3.80","4.11","3.90","4.25","4.26","4.57","4.36","4.85","4.17","4.00","4.61","3.86","4.09","4.05","4.13","4.82","4.63","4.41","4.24","4.17","4.38","4.14","4.90","3.97","4.80","5.19","4.53","5.03","5.04","5.08","4.92","4.61","5.53","4.80"
"Frozen spinach, 300 grams 4","1.49","1.52","1.48","1.47","1.46","1.43","1.42","1.44","1.42","1.53","1.42","1.49","1.56","1.50","1.55","1.48","1.47","1.57","1.51","1.53","1.55","1.38","1.57","1.55","1.43","1.66","1.73","1.54","1.50","1.68","1.70","1.68","1.75","1.64","1.77","1.86","1.50","1.63","1.44","1.78","1.65","1.58","1.66","1.57","1.72","1.73","1.50","1.78","1.90","1.86","1.84","1.96","1.62","1.60","1.58","1.54","1.62","1.62","1.48","1.59","1.63","1.47","1.48","1.59","2.19","2.20","2.22","2.27","2.22","2.22","1.79","2.14","2.04","1.99","1.97","2.02","2.40"
"Frozen strawberries, 600 grams 3","4.23","4.28","4.30","4.31","4.38","4.24","4.23","3.99","4.17","4.07","3.95","4.21","4.10","4.03","4.17","4.16","4.25","4.23","4.39","4.22","3.86","4.20","4.34","4.25","4.40","4.26","4.19","4.42","4.25","4.31","4.46","4.22","3.91","4.51","4.25","4.71","4.41","4.40","4.16","4.23","4.25","4.22","4.19","4.20","4.07","4.69","4.31","4.58","4.55","4.56","4.57","4.60","4.47","4.46","4.68","4.91","4.68","4.66","4.82","5.07","5.11","4.97","5.17","5.24","5.19","4.88","4.98","4.75","5.38","5.25","5.07","5.14","5.37","4.96","5.09","5.47","5.11"
"White bread, 675 grams 4","3.53","3.43","3.38","3.41","3.34","3.37","3.25","3.63","3.44","3.32","3.27","3.32","3.42","3.55","3.24","3.40","3.22","3.26","3.29","3.49","3.55","3.46","3.42","3.55","3.50","3.76","3.47","3.49","3.40","3.39","3.37","3.47","3.43","3.35","3.27","3.58","3.36","3.54","3.42","3.46","3.44","3.31","3.32","3.41","3.40","3.32","3.35","3.57","3.38","3.45","3.42","3.59","3.50","3.30","3.42","3.51","3.51","3.73","3.82","3.95","3.91","3.99","4.09","4.15","3.93","3.78","4.25","4.38","4.23","4.08","4.15","4.33","4.26","4.40","4.37","4.28","4.25"
"Flatbread and pita, 500 grams  4","2.16","2.16","2.20","2.17","2.17","2.13","2.07","2.13","2.16","2.13","2.06","2.14","2.34","2.25","2.23","2.36","2.49","2.40","2.44","2.36","2.46","2.42","2.42","2.45","2.58","2.49","2.49","2.52","2.56","2.42","2.43","2.46","2.52","2.65","2.63","2.69","2.63","2.68","2.72","2.75","2.68","2.57","2.47","2.51","2.69","2.62","2.61","2.66","2.73","2.59","2.54","2.78","2.83","2.58","2.61","2.64","2.48","2.48","2.57","2.80","2.82","2.96","3.18","3.27","3.39","3.14","3.40","3.59","3.66","3.64","3.70","3.68","3.87","3.95","4.07","4.09","4.14"
"Crackers and crisp breads, 200 grams  3","2.52","2.36","2.59","2.50","2.64","2.67","2.58","2.40","2.60","2.61","2.41","2.58","2.51","2.51","2.66","2.58","2.60","2.47","2.59","2.39","2.63","2.49","2.53","2.47","2.64","2.68","2.81","2.67","2.68","2.50","2.29","2.20","2.47","2.41","2.50","2.48","2.53","2.65","2.61","2.67","2.67","2.51","2.33","2.22","2.51","2.47","2.46","2.53","2.59","2.59","2.54","2.47","2.53","2.50","2.32","2.28","2.68","2.59","2.65","2.69","2.75","2.81","2.81","2.62","2.80","2.76","2.48","2.51","2.97","3.01","2.79","2.83","2.94","2.93","3.05","2.90","2.99"
"Cookies and sweet biscuits, 300 grams  4","2.53","2.31","2.45","2.45","2.43","2.52","2.59","2.45","2.41","2.56","2.39","2.64","2.44","2.58","2.53","2.45","2.68","2.56","2.72","2.78","2.77","2.60","2.58","2.75","2.60","2.75","2.74","2.55","2.75","2.62","2.73","2.68","2.63","2.57","2.52","2.86","2.98","2.82","2.76","2.63","2.76","2.59","2.58","2.62","2.60","2.72","2.61","2.71","2.78","2.66","2.71","2.62","2.64","2.53","2.55","2.60","2.59","2.62","2.68","2.67","2.88","2.70","2.72","2.83","2.77","2.94","2.82","2.88","3.03","3.10","3.12","3.14","3.27","3.22","3.24","3.09","3.03"
"Dry or fresh pasta, 500 grams 4","2.44","2.36","2.36","2.18","2.33","2.26","2.14","2.24","2.25","2.18","2.58","2.12","2.40","2.27","2.48","2.04","2.33","2.28","2.16","2.28","2.35","2.13","2.57","2.20","2.46","2.56","2.45","2.31","2.38","2.57","2.36","2.37","2.19","2.35","2.25","2.55","2.74","2.91","2.28","2.55","2.27","2.11","2.48","2.94","2.39","2.68","2.71","2.59","2.51","2.38","2.72","2.67","2.72","2.36","2.52","2.74","2.57","2.94","3.09","3.02","2.67","2.82","3.17","3.45","3.59","3.45","3.57","3.70","3.71","3.56","3.69","3.19","3.33","2.93","3.21","2.98","3.06"
"Brown rice, 900 grams  4","4.30","4.32","4.28","4.19","4.24","4.28","4.26","4.24","4.18","4.17","4.23","4.28","4.25","4.16","4.15","4.01","4.05","4.24","4.14","4.06","4.25","4.19","4.28","4.17","4.32","4.31","4.21","4.29","4.20","4.23","4.42","4.31","4.36","4.42","4.41","4.45","4.32","4.48","4.57","4.42","4.40","4.32","4.53","4.40","4.56","4.52","4.53","4.70","4.69","4.59","4.79","4.67","4.56","4.41","4.59","4.72","4.86","4.99","5.17","5.38","5.39","5.47","5.58","5.56","5.68","5.59","5.42","5.29","5.42","5.62","5.68","5.73","5.79","5.76","5.73","5.77","5.73"
"White rice, 2 kilograms 4","7.74","7.86","7.93","7.62","7.63","7.71","7.78","7.76","7.78","7.88","7.81","7.89","7.81","7.80","7.96","7.72","7.79","7.95","7.87","7.82","8.01","7.87","8.03","7.88","8.08","8.04","7.88","7.83","7.60","7.86","8.24","8.32","8.63","8.58","8.38","8.56","8.75","8.85","8.72","8.64","8.46","8.28","8.67","8.41","8.82","8.70","8.59","8.64","8.67","8.45","8.72","8.74","8.72","8.97","9.16","9.23","9.36","9.78","10.06","10.42","10.73","10.67","10.73","10.19","10.57","10.43","10.37","10.07","9.87","9.94","10.27","10.43","10.16","9.99","9.85","9.87","9.70"
"Cereal, 400 grams 4","3.33","3.14","3.41","3.23","3.19","3.22","3.17","3.23","3.15","3.28","3.29","3.20","3.26","3.27","3.39","3.22","3.35","3.33","3.26","3.42","3.18","3.33","3.25","3.18","3.26","3.34","3.39","3.21","3.27","3.31","3.24","3.30","3.17","3.16","3.36","3.49","3.45","3.41","3.47","3.37","3.31","3.39","3.35","3.54","3.36","3.42","3.38","3.41","3.47","3.46","3.51","3.45","3.40","3.59","3.51","3.61","3.66","3.78","4.09","4.25","4.27","3.99","3.95","3.89","4.01","4.02","4.11","4.14","4.18","4.15","4.10","4.20","4.16","4.20","4.40","4.24","4.11"
"Wheat flour, 2.5 kilograms 4","4.78","4.63","4.72","4.84","4.41","4.53","4.08","4.44","4.40","4.87","4.85","5.00","5.02","4.76","4.70","5.00","4.72","4.69","4.35","4.46","4.90","4.75","4.76","4.76","4.83","4.78","4.49","4.71","4.59","4.59","4.26","4.67","4.74","4.57","4.69","4.73","5.21","5.36","5.24","4.92","4.84","4.65","4.55","4.46","4.77","4.89","4.79","4.75","4.87","4.76","4.99","4.92","4.59","4.65","4.56","4.56","4.65","4.93","5.54","5.31","5.47","5.47","5.66","5.88","5.72","5.28","5.48","5.71","5.36","5.49","5.47","5.47","5.72","5.61","5.67","5.45","5.21"
"White sugar, 2 kilograms 4","3.08","2.28","3.11","3.14","2.34","2.55","1.98","2.50","2.71","2.47","2.34","2.84","2.79","2.55","2.96","2.42","2.42","1.51","2.16","2.53","2.62","2.45","2.43","2.77","2.52","2.22","2.52","2.03","2.59","2.21","2.09","2.38","2.46","2.25","2.47","2.53","2.52","2.39","2.26","1.69","1.93","2.34","2.34","2.02","2.44","2.53","2.20","2.42","2.65","2.40","2.40","2.36","2.53","2.37","2.36","2.64","2.09","2.61","2.60","2.42","2.87","2.19","2.61","2.85","2.81","2.67","1.66","2.82","3.03","3.13","2.46","2.80","3.03","2.92","2.92","2.88","2.79"
"Apple juice, 2 litres 4","3.36","3.46","3.47","3.25","3.00","3.25","3.38","3.14","3.16","3.10","3.28","3.40","3.39","3.38","3.31","3.19","3.12","3.18","3.17","3.23","3.01","3.20","3.37","3.36","3.29","3.41","3.43","3.09","2.92","3.14","3.28","3.24","3.23","3.22","3.31","3.31","3.28","3.28","3.26","3.21","3.21","3.17","3.38","3.36","3.24","3.26","3.34","3.32","3.50","3.44","3.51","3.55","3.49","3.60","3.70","3.78","3.53","3.57","3.63","3.72","3.84","3.85","3.85","3.92","3.94","3.75","3.72","3.86","3.68","3.95","4.26","4.14","4.37","4.49","4.50","4.42","4.57"
"Orange juice, 2 litres 4","3.65","3.57","3.68","3.69","3.80","3.43","3.64","3.47","3.67","3.51","3.70","3.56","3.64","3.36","3.51","3.66","3.66","3.64","3.70","3.65","3.86","3.89","3.98","3.96","3.95","3.86","3.82","3.96","3.69","3.97","3.57","3.92","3.83","3.77","3.98","4.06","4.17","4.08","4.05","4.12","4.07","3.84","3.84","3.94","4.16","4.09","4.10","4.20","4.28","4.32","4.09","4.21","4.28","4.15","4.09","4.13","4.25","4.44","4.59","4.33","4.53","4.35","4.28","4.46","4.42","3.89","4.00","4.22","4.16","4.55","4.82","4.81","4.97","5.12","5.00","4.88","5.19"
"Roasted or ground coffee, 340 grams 4","4.45","5.35","4.78","4.58","4.95","4.16","4.74","4.94","4.91","5.11","4.82","5.07","4.86","4.75","5.09","5.02","4.71","5.18","5.13","5.04","5.18","5.00","4.87","5.27","5.40","5.06","5.07","5.31","5.02","4.79","4.68","5.26","5.42","5.48","5.39","5.36","5.59","5.33","5.51","5.36","5.23","5.59","4.74","5.48","5.34","5.60","5.06","5.34","5.37","5.88","5.46","5.01","5.59","5.44","5.26","5.32","5.82","5.98","5.85","6.12","6.01","6.14","6.75","6.64","6.21","6.20","6.36","6.30","6.53","6.40","6.26","6.57","6.62","6.41","6.73","6.54","6.66"
"Tea (20 bags) 3","3.38","3.44","3.53","3.47","3.23","3.50","3.37","3.41","3.39","3.44","3.52","3.51","3.58","3.58","3.84","3.54","3.40","3.67","3.50","3.47","3.45","3.42","3.53","3.57","3.69","3.62","3.68","3.53","3.29","3.22","3.31","3.29","3.40","3.40","3.55","3.61","3.56","3.61","3.70","3.90","3.57","3.80","3.58","3.67","3.46","3.68","3.68","3.67","3.71","3.76","3.64","3.64","3.67","3.58","3.68","3.89","3.70","3.87","4.04","3.68","3.82","4.12","4.27","4.27","4.03","3.88","4.00","4.14","4.27","4.28","4.33","4.11","4.42","4.29","4.42","4.31","4.48"
"Ketchup, 1 litre 4","3.14","3.02","3.26","3.29","3.27","3.30","3.24","3.41","3.42","3.35","3.44","3.38","3.43","3.36","3.40","3.40","3.48","3.22","3.32","3.45","3.41","3.42","3.15","3.20","3.14","3.22","3.40","3.56","3.66","3.47","3.51","3.25","3.46","3.36","3.31","3.55","3.25","3.35","3.29","3.39","3.47","3.20","3.60","3.46","3.50","3.52","3.34","3.31","3.26","3.17","3.31","3.17","3.38","3.58","3.73","3.94","4.13","3.92","4.14","4.01","4.14","4.07","4.28","4.18","4.25","4.08","3.88","4.11","4.06","4.29","4.55","4.62","4.46","4.46","4.66","4.69","4.70"
"Vegetable oil, 3 litres 4","5.49","5.29","5.32","5.70","5.45","5.59","5.65","5.92","5.58","5.62","5.91","5.94","5.72","5.20","5.76","5.95","5.86","5.60","5.87","5.75","5.83","5.78","5.60","5.76","5.47","4.94","5.16","5.54","5.49","5.36","5.56","5.66","4.23","5.79","5.81","6.41","4.49","6.18","6.37","5.65","4.42","4.92","6.10","6.30","6.42","5.20","5.83","5.97","6.56","6.79","7.78","7.94","8.93","9.33","9.06","8.80","8.80","9.93","9.87","10.13","10.15","10.19","11.77","11.62","11.72","12.19","10.14","10.30","11.87","11.00","10.91","10.67","12.29","11.99","11.35","11.25","10.74"
"Canola oil, 3 litres 4","7.57","8.34","7.90","8.88","8.41","7.39","7.63","7.44","7.28","8.04","8.38","8.16","8.08","7.94","8.04","7.62","8.01","8.50","7.86","7.82","7.04","8.24","8.50","7.47","8.25","8.43","7.31","8.50","8.30","8.37","6.71","7.63","7.17","7.70","8.54","8.28","8.57","8.43","8.34","7.74","8.05","8.34","7.30","7.81","7.54","8.79","8.19","7.76","8.74","9.49","9.68","9.65","10.38","10.77","10.61","10.63","10.23","12.82","12.17","12.45","12.65","12.58","13.60","14.10","13.96","13.70","12.45","12.02","12.28","12.60","12.69","12.24","13.29","13.35","13.92","12.99","11.80"
"Olive oil, 1 litre 4","8.77","8.93","9.01","9.22","7.97","9.44","9.61","6.59","9.47","9.40","6.82","9.00","7.86","8.76","9.28","9.04","8.64","7.01","8.78","7.13","8.90","9.10","7.60","7.33","7.26","8.73","8.62","8.96","8.72","7.36","8.77","5.81","8.25","8.59","8.41","8.19","7.19","8.70","6.82","8.58","8.19","8.12","6.88","7.37","7.89","8.34","6.53","8.97","8.53","8.53","9.07","8.47","9.34","9.05","9.52","9.08","9.66","9.58","9.99","8.67","10.26","10.32","9.57","10.61","9.21","8.74","10.08","10.20","10.89","10.94","11.46","11.56","12.01","12.75","13.39","13.30","11.07"
"Baby food, 128 millilitres 4","1.31","1.28","1.22","1.25","1.25","1.26","1.25","1.28","1.27","1.26","1.26","1.29","1.28","1.30","1.34","1.32","1.29","1.38","1.30","1.35","1.34","1.34","1.28","1.33","1.30","1.38","1.31","1.26","1.25","1.33","1.40","1.45","1.44","1.42","1.47","1.50","1.37","1.35","1.39","1.37","1.39","1.39","1.41","1.42","1.41","1.40","1.39","1.41","1.39","1.41","1.43","1.43","1.41","1.38","1.43","1.39","1.50","1.48","1.46","1.47","1.48","1.48","1.38","1.42","1.41","1.37","1.39","1.44","1.41","1.55","1.63","1.62","1.64","1.65","1.69","1.70","1.68"
"Infant formula, 900 grams  4","25.44","26.02","25.97","24.87","25.68","25.04","25.25","25.13","24.90","24.58","25.93","25.42","26.35","26.28","25.62","26.42","25.93","27.27","27.34","26.97","26.90","26.67","26.70","27.29","26.66","26.74","27.22","26.00","26.52","27.17","26.53","26.57","26.84","26.63","26.58","27.49","27.06","27.23","27.53","27.97","27.32","27.00","25.64","26.82","26.45","25.76","27.90","26.12","26.36","27.14","27.54","26.37","27.25","25.56","27.19","27.21","26.69","26.56","26.70","27.55","27.96","29.14","29.41","28.83","28.59","29.46","31.05","31.69","32.21","32.13","33.97","33.62","35.55","35.97","34.70","34.75","35.13"
"Peanut butter, 1 kilogram 4","4.16","3.54","4.06","4.36","3.51","3.89","4.03","3.55","4.15","4.42","4.68","4.26","4.18","4.71","4.22","4.48","4.12","4.40","4.78","4.34","4.25","4.66","4.43","4.79","4.57","4.52","4.26","4.71","4.30","4.63","4.21","4.46","4.42","4.26","5.17","4.45","4.86","4.64","4.59","4.73","4.41","4.46","5.02","4.58","4.89","5.21","5.08","4.95","4.68","4.67","4.59","4.45","4.61","4.92","5.36","4.68","4.58","5.24","5.29","5.45","5.19","5.30","5.37","5.41","5.44","5.53","5.30","5.24","5.12","5.79","6.21","6.08","6.12","6.26","6.11","6.11","6.18"
"Mayonnaise, 890 millilitres  4","4.29","4.20","4.18","4.25","4.50","4.27","4.28","4.38","4.34","4.45","4.36","4.23","4.50","4.33","4.37","4.46","4.35","4.48","4.39","4.28","4.38","4.57","4.52","4.49","4.46","4.33","4.40","4.60","4.66","4.48","4.44","4.41","4.59","4.57","4.71","4.82","4.69","4.56","4.64","4.93","4.85","4.67","4.49","4.60","4.58","4.58","4.54","4.64","4.63","4.52","5.11","5.06","5.31","5.22","5.37","5.21","5.30","5.43","5.91","6.16","6.11","5.89","6.62","6.39","6.40","6.49","6.30","6.24","5.99","6.40","6.46","6.40","6.35","6.13","6.34","6.58","6.44"
"Canned baked beans, 398 millilitres 4","1.17","1.13","1.13","1.16","1.21","1.23","1.24","1.26","1.02","1.02","1.24","1.24","1.21","1.17","1.21","1.09","1.15","1.25","1.17","1.24","1.01","1.01","1.25","1.23","1.19","1.14","1.23","1.21","1.23","1.24","1.23","1.22","1.08","1.04","1.23","1.32","1.26","1.28","1.26","1.27","1.31","1.31","1.32","1.39","1.47","1.36","1.32","1.26","1.20","1.24","1.26","1.25","1.31","1.30","1.28","1.38","1.34","1.32","1.34","1.36","1.58","1.55","1.51","1.41","1.53","1.37","1.70","1.78","1.31","1.69","1.71","1.91","1.86","1.39","1.33","1.60","1.90"
"Canned tomatoes, 796 millilitres 4","1.33","1.44","1.37","1.42","1.40","1.40","1.52","1.50","1.32","1.42","1.33","1.29","1.40","1.39","1.35","1.38","1.33","1.40","1.35","1.45","1.28","1.35","1.34","1.41","1.45","1.42","1.39","1.38","1.48","1.43","1.35","1.22","1.42","1.58","1.59","1.69","1.78","1.77","1.76","1.76","1.60","1.33","1.45","1.47","1.53","1.61","1.48","1.62","1.55","1.70","1.78","1.74","1.65","1.54","1.59","1.71","1.48","1.53","1.63","1.75","1.65","1.80","1.89","1.83","2.05","1.50","1.84","2.00","1.66","1.74","2.05","1.95","1.60","2.18","2.29","2.32","2.18"
"Canned soup, 284 millilitres 4","1.03","1.05","0.88","0.69","0.83","0.80","0.90","1.01","0.99","0.92","0.83","0.92","1.02","0.84","0.63","0.84","0.77","0.89","0.89","1.00","0.90","0.75","0.91","0.93","1.00","0.91","0.69","0.81","0.95","0.93","0.85","0.99","0.98","0.93","0.86","0.97","0.98","1.17","0.90","1.08","1.15","1.14","1.00","1.02","0.98","0.98","0.62","0.87","0.91","0.90","0.88","0.91","0.92","0.89","0.77","0.92","0.96","1.03","0.77","1.04","1.24","1.12","1.18","1.21","1.44","1.29","1.42","1.53","1.10","1.37","0.92","1.31","1.41","1.36","1.44","1.13","1.41"
"Canned beans and lentils, 540 millilitres 3","1.14","1.15","1.12","1.13","1.16","1.14","1.17","1.21","1.18","1.17","1.12","1.14","1.13","1.15","1.09","1.13","1.20","1.22","1.18","1.23","1.21","1.22","1.21","1.24","1.26","1.20","1.13","1.13","1.16","1.14","1.22","1.25","1.22","1.25","1.32","1.32","1.31","1.31","1.30","1.26","1.24","1.29","1.29","1.28","1.34","1.33","1.31","1.23","1.27","1.24","1.30","1.24","1.29","1.34","1.50","1.46","1.42","1.37","1.43","1.57","1.59","1.70","1.68","1.53","1.66","1.69","1.79","1.78","1.46","1.44","1.67","1.75","1.46","1.51","1.57","1.73","1.77"
"Canned corn, 341 millilitres 4","0.86","0.99","1.07","1.13","1.05","1.06","1.07","1.06","1.14","1.11","1.06","1.07","1.02","1.13","1.09","1.08","1.05","1.05","1.07","1.04","1.12","1.14","1.11","1.10","1.12","1.08","1.10","1.07","1.11","1.09","1.16","1.10","1.20","1.22","1.26","1.44","1.60","1.38","1.43","1.35","1.33","1.29","1.33","1.22","1.30","1.35","1.41","1.36","1.40","1.38","1.39","1.37","1.35","1.31","1.27","1.17","1.36","1.40","1.35","1.28","1.35","1.42","1.52","1.71","1.61","1.54","1.37","1.43","1.54","1.63","1.74","1.65","1.63","1.62","1.70","1.70","1.54"
"Canned peach, 398 millilitres 4","1.96","1.94","1.95","1.82","1.68","2.12","2.10","2.02","2.00","1.99","2.03","2.12","2.08","2.11","2.16","2.14","2.27","2.19","2.08","2.19","1.90","1.54","1.61","1.84","2.31","2.17","1.89","1.79","2.20","1.64","1.84","2.19","2.28","2.29","2.43","2.41","2.41","2.36","2.35","2.41","2.35","2.27","2.29","2.04","1.99","2.33","2.36","2.42","2.21","2.31","2.34","2.27","2.17","2.14","2.24","2.14","2.29","2.35","2.23","2.22","2.25","2.44","2.45","2.49","2.46","2.51","2.63","2.36","2.66","2.70","2.74","2.96","2.59","2.57","2.60","2.57","2.55"
"Canned pear, 398 millilitres 4","1.90","2.03","1.94","1.91","1.92","1.92","1.91","1.93","1.89","1.92","2.07","2.07","2.09","2.08","2.07","2.03","2.09","2.05","2.00","2.09","1.84","1.88","1.98","1.97","2.10","2.10","1.91","1.90","2.09","2.13","2.10","1.98","2.09","2.29","2.39","2.46","2.47","2.43","2.45","2.48","2.39","2.14","2.21","2.19","2.18","2.35","2.36","2.41","2.21","2.35","2.35","2.27","2.09","2.13","2.33","2.16","2.39","2.40","2.28","2.26","2.26","2.42","2.51","2.57","2.57","2.54","2.54","2.57","2.88","2.92","2.68","2.69","2.80","2.83","2.87","2.57","2.81"
"Dried lentils, 900 grams 4","3.06","2.82","3.14","3.04","3.05","2.93","3.14","2.98","2.94","2.75","2.77","2.97","2.71","2.81","3.09","2.96","2.90","3.00","3.10","3.19","3.04","2.90","3.01","2.77","3.10","3.13","2.96","3.08","2.86","3.06","3.03","3.29","3.32","3.21","3.24","3.40","3.13","3.26","3.05","3.00","3.18","2.98","3.10","3.16","3.14","3.03","2.96","2.97","3.18","3.54","3.38","3.62","3.65","3.42","3.45","3.57","3.74","3.85","3.75","3.87","4.14","4.10","4.18","4.33","4.29","3.96","4.01","4.19","4.12","4.14","4.25","4.32","4.21","4.03","4.09","4.18","3.94"
"Dry beans and legumes, 900 grams  4","2.71","2.56","2.67","2.60","2.58","2.55","2.60","2.63","2.58","2.43","2.42","2.58","2.45","2.45","2.63","2.54","2.53","2.61","2.63","2.67","2.64","2.56","2.53","2.46","2.62","2.66","2.54","2.62","2.54","2.58","2.66","2.85","2.84","2.71","2.84","2.85","2.80","2.96","2.78","2.67","2.81","2.63","2.73","2.73","2.70","2.73","2.76","2.59","2.81","3.11","2.93","3.05","3.01","2.77","2.81","2.94","3.04","3.11","3.21","3.23","3.38","3.40","3.51","3.65","3.56","3.24","3.28","3.51","3.54","3.59","3.71","3.74","3.73","3.62","3.64","3.58","3.53"
"Tofu, 350 grams  4","2.06","2.11","2.24","2.23","2.19","2.19","2.29","2.21","2.18","2.28","2.34","2.46","2.43","2.41","2.49","2.51","2.48","2.44","2.44","2.29","2.35","2.40","2.42","2.38","2.34","2.32","2.33","2.39","2.39","2.38","2.40","2.40","2.37","2.44","2.49","2.57","2.77","2.64","2.55","2.57","2.42","2.43","2.52","2.49","2.50","2.53","2.65","2.50","2.56","2.54","2.55","2.54","2.63","2.55","2.43","2.47","2.50","2.62","2.50","2.64","2.58","2.62","2.63","2.76","2.83","2.89","2.74","2.91","2.82","2.78","2.92","2.77","2.91","2.93","2.65","2.68","2.79"
"Hummus, 227 grams 4","3.54","3.51","3.52","3.48","3.63","3.68","3.58","3.47","3.50","3.48","3.55","3.55","3.62","3.50","3.67","3.36","3.74","3.55","3.62","3.66","3.52","3.61","3.58","3.34","3.70","3.28","3.51","3.35","3.64","3.65","3.66","3.65","3.33","3.45","3.51","3.54","3.52","3.42","3.77","3.46","3.30","3.70","3.73","3.67","3.57","3.40","3.47","3.53","3.28","3.35","3.71","3.48","3.46","3.76","3.66","3.63","3.81","3.54","3.46","3.38","3.53","3.66","3.99","4.26","4.28","4.03","4.10","4.04","4.20","3.76","3.93","3.78","4.04","3.87","4.03","3.93","4.16"
"Salsa, 418 millilitres 4","3.19","3.03","2.85","3.12","3.02","2.96","2.82","2.87","2.85","2.77","2.93","3.06","3.00","3.02","2.82","3.02","3.20","2.98","3.00","2.89","2.88","2.85","3.05","3.22","3.12","3.29","3.25","3.33","3.34","3.33","3.21","3.28","3.20","3.31","3.37","3.45","3.51","3.50","3.45","3.51","3.47","3.32","3.36","3.41","3.37","3.27","3.47","3.47","3.57","3.37","3.27","3.35","3.40","3.47","3.59","3.46","3.67","3.80","3.73","3.69","3.64","3.96","3.93","4.20","4.30","4.17","4.00","4.15","4.16","4.39","4.48","4.56","4.63","4.44","4.49","4.66","4.59"
"Pasta sauce, 650 millilitres 4","2.40","2.63","2.46","2.11","2.49","2.61","2.36","2.51","2.38","2.45","2.64","2.43","2.58","2.13","2.58","2.81","2.52","2.74","2.55","2.67","2.57","2.67","2.36","2.62","2.75","2.91","2.74","2.38","2.45","2.60","2.69","2.38","2.62","2.41","2.69","2.73","2.73","2.74","3.20","2.82","2.72","2.73","2.69","2.69","2.84","2.78","2.79","2.59","3.04","3.37","3.21","2.91","3.10","2.90","3.03","3.20","2.85","3.23","2.73","3.35","2.99","3.26","3.31","3.37","3.36","3.25","2.88","3.63","3.38","3.60","3.15","3.70","4.04","4.07","3.72","2.87","3.73"
"Salad dressing, 475 millilitres 4","2.45","2.25","2.31","2.41","2.47","2.59","2.54","2.63","2.52","2.52","2.50","2.57","2.55","2.24","2.51","2.55","2.70","2.72","2.63","2.43","2.48","2.36","2.48","2.64","2.49","2.66","2.45","2.47","2.53","2.64","2.35","2.35","2.42","2.50","2.81","2.73","2.57","2.86","2.79","2.75","2.67","2.70","2.76","2.83","2.59","2.60","2.67","2.58","2.63","2.62","2.71","2.75","2.80","2.84","3.07","3.19","3.09","3.22","3.48","3.28","3.23","3.04","3.21","3.23","3.39","3.38","2.95","3.40","3.24","3.55","3.64","3.50","3.41","3.35","3.33","3.43","3.40"
"Almonds, 200 grams 4","4.24","3.70","4.02","4.40","4.56","4.42","5.12","4.58","4.74","4.87","4.95","5.22","5.05","5.07","5.62","5.51","5.43","5.52","5.06","5.09","5.37","5.34","5.11","5.26","5.46","5.40","5.52","5.18","5.32","5.55","5.50","5.54","5.54","5.35","5.71","5.81","5.73","5.78","5.75","5.48","5.61","5.52","5.26","5.41","5.51","5.50","5.70","5.74","5.67","5.65","5.61","5.57","5.47","5.45","5.35","5.43","5.51","5.19","5.54","5.63","5.59","5.56","5.46","5.50","5.49","5.33","5.51","5.39","5.50","5.47","5.41","5.39","5.46","5.46","5.45","5.56","5.52"
"Peanuts, 450 grams 4","3.50","3.39","3.44","3.48","3.47","3.53","3.42","3.39","3.57","3.61","3.57","3.69","3.58","3.60","3.89","3.63","3.60","3.63","3.61","3.57","3.61","3.41","3.37","3.46","3.37","3.30","3.62","3.44","3.43","3.51","3.28","3.51","3.42","3.30","3.51","3.60","3.48","3.59","3.68","3.54","3.55","3.52","3.55","3.54","3.29","3.07","3.34","3.35","3.29","3.36","3.48","3.35","3.51","3.27","3.17","3.36","3.45","3.39","3.45","3.34","3.46","3.42","3.47","3.46","3.52","3.39","3.60","3.55","3.47","3.49","3.74","3.84","3.80","3.77","3.89","3.60","3.77"
"Sunflower seeds, 400 grams  4","4.36","4.40","4.36","4.39","4.57","4.56","4.49","4.50","4.53","4.54","4.53","4.37","4.43","4.41","4.46","4.40","4.47","4.43","4.47","4.36","4.39","4.32","4.26","4.27","4.32","4.31","4.32","4.33","4.37","4.33","4.28","4.29","4.22","4.21","4.17","4.22","4.24","4.24","4.12","4.17","4.15","4.08","4.08","4.08","4.16","4.12","4.11","4.13","4.03","3.96","4.09","4.12","3.99","3.84","3.92","4.01","4.06","4.06","4.04","4.27","4.10","4.19","4.39","4.46","4.40","4.34","4.40","4.57","4.59","4.67","4.77","4.84","4.91","4.74","4.71","4.77","4.51"
"Deodorant, 85 grams 4","4.35","4.53","4.63","4.57","4.61","4.39","4.28","4.50","4.44","4.47","4.44","4.50","4.60","4.41","4.68","4.39","4.64","4.38","4.66","4.41","4.57","4.70","4.58","4.83","4.63","4.42","4.82","4.63","4.54","4.77","4.95","4.84","5.08","4.96","5.27","5.15","5.10","5.31","4.92","5.07","4.77","4.77","4.54","4.99","4.88","5.09","5.15","4.85","5.33","5.27","5.11","5.15","5.35","5.69","5.88","5.58","5.56","5.24","5.84","5.77","5.89","6.09","6.28","6.31","5.72","5.93","6.10","6.27","6.47","6.41","6.62","6.86","7.02","6.95","6.98","6.81","6.98"
"Toothpaste, 100 millilitres 4","2.55","2.63","2.55","2.26","2.55","2.56","2.68","2.63","2.65","2.63","2.50","2.52","2.69","2.47","2.71","2.20","2.58","2.58","2.78","2.70","2.61","2.77","2.73","2.67","2.74","2.68","2.48","2.50","2.93","2.85","2.94","2.84","2.80","2.92","3.02","3.22","3.08","2.92","3.05","2.89","2.96","2.90","3.10","3.31","2.89","3.13","2.90","3.28","3.35","3.09","3.22","3.21","3.09","3.30","3.14","3.46","2.95","3.33","3.05","3.17","3.46","3.32","3.35","3.30","3.14","3.25","3.23","3.36","2.95","3.20","3.28","3.46","3.52","3.42","3.37","3.13","3.08"
"Shampoo, 400 millilitres 4","5.04","4.94","4.89","4.76","4.76","4.79","4.95","4.72","4.96","4.86","4.36","3.98","4.72","4.82","5.12","4.39","4.35","4.74","4.93","5.16","5.12","4.97","4.63","5.14","4.68","5.18","4.50","4.74","4.80","4.24","4.96","4.74","5.18","4.53","4.85","5.06","5.23","5.50","5.14","5.03","5.00","4.41","4.95","5.19","4.86","4.97","4.94","5.04","5.28","5.03","5.17","5.31","5.35","5.31","5.37","5.34","5.39","5.40","5.35","5.57","5.65","5.65","5.58","5.84","5.69","6.05","5.71","6.08","5.57","5.50","5.81","5.96","5.77","5.98","6.06","5.89","5.93"
"Laundry detergent, 4.43 litres 4","15.34","14.26","15.37","15.67","14.69","14.22","15.34","15.92","14.51","13.61","13.87","12.83","13.34","12.21","13.37","14.41","14.48","14.49","14.07","15.30","13.17","14.49","13.41","12.33","13.13","12.08","14.61","12.35","12.99","13.99","13.40","14.48","14.23","14.42","14.29","13.41","13.54","13.68","14.84","14.34","14.60","14.88","15.87","16.77","15.71","15.25","14.73","14.32","13.60","13.44","14.55","13.85","14.86","15.63","13.99","14.55","15.26","13.28","16.44","16.37","17.77","16.42","17.79","14.69","16.22","16.78","16.14","15.77","17.11","16.90","15.71","16.29","18.46","16.84","18.02","18.01","19.62"




Footnotes:
1,"Average price estimates for these products are derived using transaction data from Canadian grocery retailers. The composition of a given product category may change over time due to evolving consumer purchasing patterns and product availability. Therefore, average prices may not be fully comparable from one month to another and should not be used as a representative measure of pure price change through time. Note: Data are subject to revision."
2,"For concepts and definitions, see the <a href="https://www150.statcan.gc.ca/n1/pub/62f0014m/62f0014m2022007-eng.htm">Methodological Supplement for the Monthly Average Retail Prices Table</a> publication, available in the Prices Analytical Series (62F0014M). Additional information, including product details, can be obtained by contacting the <a href="mailto:statcan.cpddisseminationunit-dpcunitedediffusion.statcan@statcan.gc.ca">Consumer Prices Division</a>."
3,"Specific size - In most cases, a specific size or quantity can be easily identified as the measure of best fit for a particular product. For some products, a specific size or quantity is the most commonly purchased by a considerable amount (for example, 1 dozen eggs). Other products have multiple high-sale sizes over a large range (for example, milk). In this case we calculate separate average prices for each size (1 L, 2 L and 4 L) in order to provide a fuller picture. Other products such as fresh produce and meats are often sold by weight, and provided as a price per kilogram. In these cases, 1 kilogram is applied as the specific size. For all of these products, only items of the specific size or quantity are included in the average price calculation. The specific size alone provides sufficient coverage to produce a robust measure."
4,"Standardized size - For certain products which are available to consumers in a wide variety of package sizes, prices for products within a set range of package sizes are standardized before the average price calculation. For example, prices for blocks of cheese ranging in size from 400 g to 800 g are adjusted to represent a 500 g block of cheese, and are presented as such in the average prices table."



"How to cite: Statistics Canada. Table 18-10-0245-01  Monthly average retail prices for selected products"
https://www150.statcan.gc.ca/t1/tbl1/en/tv.action?pid=1810024501